{
    "id": "abcd1234",
    "nextStep": {
        "fields": [
            {
                "defaultValue": "",
                "label": "How many customers do you have each year?",
                "name": "Lst_CustCountPerYear",
                "options": [
                    {
                        "text": "A small number of customers",
                        "value": "1"
                    },
                    {
                        "text": "Tens of customers",
                        "value": "2"
                    },
                    {
                        "text": "Hundreds of customers",
                        "value": "3"
                    },
                    {
                        "text": "Thousands of customers",
                        "value": "4"
                    }
                ],
                "required": "true",
                "type": "ListSelect"
            },
            {
                "defaultValue": "",
                "label": "Do customers trade with you on credit? ",
                "name": "Lst_CustCredit",
                "options": [
                    {
                        "text": "Never",
                        "value": "1"
                    },
                    {
                        "text": "It\u2019s a small part of my sales",
                        "value": "2"
                    },
                    {
                        "text": "it\u2019s a significant part of my sales",
                        "value": "3"
                    },
                    {
                        "text": "its most of my sales",
                        "value": "4"
                    }
                ],
                "required": "true",
                "type": "ListSelect"
            },
            {
                "defaultValue": "",
                "label": "Do you receive sales on a card payment terminal/ POS device",
                "name": "Lst_POSSales",
                "options": [
                    {
                        "text": "Never",
                        "value": "1"
                    },
                    {
                        "text": "It\u2019s a small part of my sales",
                        "value": "2"
                    },
                    {
                        "text": "it\u2019s a significant part of my sales",
                        "value": "3"
                    },
                    {
                        "text": "its most of my sales",
                        "value": "4"
                    }
                ],
                "required": "true",
                "type": "ListSelect"
            },
            {
                "defaultValue": "",
                "label": "Do you purchase inventory that is ready for resale?",
                "name": "Lst_PurchaseInventory",
                "options": [
                    {
                        "text": "None",
                        "value": "1"
                    },
                    {
                        "text": "A small proportion",
                        "value": "2"
                    },
                    {
                        "text": "A significant proportion",
                        "value": "3"
                    },
                    {
                        "text": "Most",
                        "value": "4"
                    }
                ],
                "required": "true",
                "type": "ListSelect"
            },
            {
                "defaultValue": "",
                "label": "Do you sell outside SA?",
                "name": "Lst_CrossBorderSales",
                "options": [
                    {
                        "text": "Never",
                        "value": "1"
                    },
                    {
                        "text": "It's a small part of my sales",
                        "value": "2"
                    },
                    {
                        "text": "it's a significant part of my sales",
                        "value": "3"
                    },
                    {
                        "text": "its most of my sales",
                        "value": "4"
                    }
                ],
                "required": "true",
                "type": "ListSelect"
            },
            {
                "defaultValue": "",
                "label": "Do you own business assets such vehicles equipment or machines (Give values net of existing finance)",
                "name": "Lst_BusAssetOwnership",
                "options": [
                    {
                        "text": "These assets are not significant",
                        "value": "1"
                    },
                    {
                        "text": "Assets worth less than R 250 000",
                        "value": "2"
                    },
                    {
                        "text": "Assets worth R 250 000 - R 500 000",
                        "value": "3"
                    },
                    {
                        "text": "Assets worth R 500 000 - R 1 000 000",
                        "value": "4"
                    },
                    {
                        "text": "Assets worth R 1 000 000 - R 2 000 000",
                        "value": "5"
                    },
                    {
                        "text": "Assets worth R 2 000 000 - R 5 000 000",
                        "value": "6"
                    },
                    {
                        "text": "Assets worth R 5 000 000 - R 10 000 000",
                        "value": "7"
                    },
                    {
                        "text": "Assets worth more than R 10 000 000",
                        "value": "8"
                    }
                ],
                "required": "true",
                "type": "ListSelect"
            },
            {
                "defaultValue": "",
                "label": "Does your business own premises? (Give values net of existing finance)",
                "name": "Lst_BusOwnPremises",
                "options": [
                    {
                        "text": "These assets are not significant",
                        "value": "1"
                    },
                    {
                        "text": "Assets worth less than R 250 000",
                        "value": "2"
                    },
                    {
                        "text": "Assets worth R 250 000 - R 500 000",
                        "value": "3"
                    },
                    {
                        "text": "Assets worth R 500 000 - R 1 000 000",
                        "value": "4"
                    },
                    {
                        "text": "Assets worth R 1 000 000 - R 2 000 000",
                        "value": "5"
                    },
                    {
                        "text": "Assets worth R 2 000 000 - R 5 000 000",
                        "value": "6"
                    },
                    {
                        "text": "Assets worth R 5 000 000 - R 10 000 000",
                        "value": "7"
                    },
                    {
                        "text": "Assets worth more than R 10 000 000",
                        "value": "8"
                    }
                ],
                "required": "true",
                "type": "ListSelect"
            },
            {
                "defaultValue": "",
                "label": "Are you or any directors or owners homeowners? (Give values net of existing finance)",
                "name": "Lst_Homeowners",
                "options": [
                    {
                        "text": "No homeowners",
                        "value": "1"
                    },
                    {
                        "text": "Home equity is R 100 000 - R 250 000",
                        "value": "2"
                    },
                    {
                        "text": "Home equity is R 250 000 - R 500 000",
                        "value": "3"
                    },
                    {
                        "text": "Home equity is R 500 000 - R 1 000 000",
                        "value": "4"
                    },
                    {
                        "text": "Home equity is R 1 000 000 - R 2 000 000",
                        "value": "5"
                    },
                    {
                        "text": "Home equity is R 2 000 000 - R 5 000 000",
                        "value": "6"
                    },
                    {
                        "text": "Home equity is R 5 000 000 - R 10 000 000",
                        "value": "7"
                    },
                    {
                        "text": "Home equity is more than R 10 000 000",
                        "value": "8"
                    }
                ],
                "required": "true",
                "type": "ListSelect"
            },
            {
                "defaultValue": "",
                "label": "Do you or any directors or owners have a personal pension? ",
                "name": "Lst_PersonalPension",
                "options": [
                    {
                        "text": "These assets are not significant",
                        "value": "1"
                    },
                    {
                        "text": "Assets worth less than R 250 000",
                        "value": "2"
                    },
                    {
                        "text": "Assets worth R 250 000 - R 500 000",
                        "value": "3"
                    },
                    {
                        "text": "Assets worth R 500 000 - R 1 000 000",
                        "value": "4"
                    },
                    {
                        "text": "Assets worth R 1 000 000 - R 2 000 000",
                        "value": "5"
                    },
                    {
                        "text": "Assets worth R 2 000 000 - R 5 000 000",
                        "value": "6"
                    },
                    {
                        "text": "Assets worth R 5 000 000 - R 10 000 000",
                        "value": "7"
                    },
                    {
                        "text": "Assets worth more than R 10 000 000",
                        "value": "8"
                    }
                ],
                "required": "true",
                "type": "ListSelect"
            },
            {
                "defaultValue": "",
                "label": "Is your brand a registered trade mark or generelly well known?",
                "name": "Lst_BrandID",
                "options": [
                    {
                        "text": "Yes",
                        "value": "1"
                    },
                    {
                        "text": "No",
                        "value": "2"
                    }
                ],
                "required": "true",
                "type": "RadioGroup"
            },
            {
                "defaultValue": "",
                "label": "Do you have an registered IP such as patents?",
                "name": "Lst_IPRegistered",
                "options": [
                    {
                        "text": "Yes",
                        "value": "1"
                    },
                    {
                        "text": "No",
                        "value": "2"
                    }
                ],
                "required": "true",
                "type": "RadioGroup"
            },
            {
                "defaultValue": "",
                "label": "Do you have a business plan with forecasts?",
                "name": "Lst_BusPlan",
                "options": [
                    {
                        "text": "Yes",
                        "value": "1"
                    },
                    {
                        "text": "No",
                        "value": "2"
                    }
                ],
                "required": "true",
                "type": "RadioGroup"
            },
            {
                "defaultValue": "",
                "label": "Can you easily provide up to date management accounts?",
                "name": "Lst_ManAccounts",
                "options": [
                    {
                        "text": "Yes",
                        "value": "1"
                    },
                    {
                        "text": "No",
                        "value": "2"
                    }
                ],
                "required": "true",
                "type": "RadioGroup"
            },
            {
                "label": "Who is the manufacturer of the asset?",
                "name": "Lst_TextQuestion_2",
                "required": "true",
                "type": "Text"
            },
            {
                "label": "Who are you sourcing the asset from?",
                "name": "Lst_TextQuestion_3",
                "required": "true",
                "type": "Text"
            },
            {
                "label": "Where is the supplier based?",
                "name": "Lst_TextQuestion_4",
                "required": "true",
                "type": "Text"
            },
            {
                "label": "Are these document readily available?",
                "name": "Lst_MinimumDocs",
                "options": [
                    {
                        "text": "Business plan and forecasts",
                        "value": "1"
                    },
                    {
                        "text": "Up to date management accounts",
                        "value": "2"
                    },
                    {
                        "text": "Signed Annual Financial Statements ",
                        "value": "3"
                    },
                    {
                        "text": "3-6 Months Bank Statements",
                        "value": "4"
                    },
                    {
                        "text": "Other",
                        "value": "5"
                    }
                ],
                "required": "true",
                "type": "TickBox"
            }
        ],
        "step": 2
    },
    "result": "OK"
}
